CBxResponsbility_Preprocessing
…
The following object is masked from 'package:dplyr':

    group_rows

[1] 20

[1] "/Users/carsonkoffler/Documents/Envy/Cyberball/CyberballXResponsibility/Data/PilotB/084g6ncqwd.csv"
[2] "/Users/carsonkoffler/Documents/Envy/Cyberball/CyberballXResponsibility/Data/PilotB/1p9cuz1lrz.csv"
[3] "/Users/carsonkoffler/Documents/Envy/Cyberball/CyberballXResponsibility/Data/PilotB/4qj2wobo4g.csv"
[4] "/Users/carsonkoffler/Documents/Envy/Cyberball/CyberballXResponsibility/Data/PilotB/7d3m607ano.csv"
[5] "/Users/carsonkoffler/Documents/Envy/Cyberball/CyberballXResponsibility/Data/PilotB/9a9p6tunvj.csv"
[6] "/Users/carsonkoffler/Documents/Envy/Cyberball/CyberballXResponsibility/Data/PilotB/crm2r6buro.csv"

# A tibble: 675 × 4
   subject_id cb_throws from      to       
   <chr>          <dbl> <chr>     <chr>    
 1 084g6ncqwd        11 Treasurer SP2      
 2 084g6ncqwd        12 SP2       Treasurer
 3 084g6ncqwd        13 Treasurer SP1      
 4 084g6ncqwd        14 SP1       Treasurer
 5 084g6ncqwd        15 Treasurer SP2      
 6 084g6ncqwd        16 SP2       Treasurer
 7 084g6ncqwd        17 Treasurer SP1      
 8 084g6ncqwd        18 SP1       Treasurer
 9 084g6ncqwd        19 Treasurer SP1      
10 084g6ncqwd        20 SP1       Treasurer
# ℹ 665 more rows
…
